<svg xmlns="http://www.w3.org/2000/svg" width="108" height="125" viewBox="0 0 108 125">
  <metadata><?xpacket begin="﻿" id="W5M0MpCehiHzreSzNTczkc9d"?>
<x:xmpmeta xmlns:x="adobe:ns:meta/" x:xmptk="Adobe XMP Core 5.6-c138 79.159824, 2016/09/14-01:09:01        ">
   <rdf:RDF xmlns:rdf="http://www.w3.org/1999/02/22-rdf-syntax-ns#">
      <rdf:Description rdf:about=""/>
   </rdf:RDF>
</x:xmpmeta>
                                                                                                    
                                                                                                    
                                                                                                    
                                                                                                    
                                                                                                    
                                                                                                    
                                                                                                    
                                                                                                    
                                                                                                    
                                                                                                    
                                                                                                    
                                                                                                    
                                                                                                    
                                                                                                    
                                                                                                    
                                                                                                    
                                                                                                    
                                                                                                    
                                                                                                    
                                                                                                    
                           
<?xpacket end="w"?></metadata>
<defs>
    <style>
      .cls-1 {
        fill: #ff6c4a;
        fill-rule: evenodd;
      }
    </style>
  </defs>
  <path class="cls-1" d="M37.766,48.781a8.859,8.859,0,1,1-8.859,8.859A8.859,8.859,0,0,1,37.766,48.781Zm32.469,0a8.859,8.859,0,1,1-8.859,8.859A8.859,8.859,0,0,1,70.234,48.781ZM54,0A53.158,53.158,0,0,0,.838,53.022v50.1L21.9,124.132l16.049-16.006L54,124.132l16.049-16.006L86.1,124.132l21.064-21.009v-50.1A53.158,53.158,0,0,0,54,0ZM97.131,98.962l-11.034,11L70.049,93.96,54,109.966,37.951,93.96,21.9,109.966l-11.033-11V53.022a43.131,43.131,0,0,1,86.262,0v45.94Z"/>
</svg>
