<?xml version="1.0" encoding="utf-8"?>
<!-- Generator: Adobe Illustrator 25.0.1, SVG Export Plug-In . SVG Version: 6.00 Build 0)  -->
<svg version="1.1" id="Layer_1" xmlns="http://www.w3.org/2000/svg" xmlns:xlink="http://www.w3.org/1999/xlink" x="0px" y="0px"
	 viewBox="0 0 1583 882" style="enable-background:new 0 0 1583 882;" xml:space="preserve">
<style type="text/css">
	.st0{fill-rule:evenodd;clip-rule:evenodd;fill:#99a8b5}
</style>
<path id="U" class="st0" d="M786.9,627.9l600.7-590.3c52-49.1,104.1-49.1,156.3,0c52,46.1,52,93.8,0,143L865,849.3
	c-22.8,21.5-48.9,32.3-78.1,32.3c-29.3,0-55.4-10.8-78.2-32.3L29.8,180.6c-19.6-18.5-29.3-41.5-29.3-69.2c0-30.7,9.7-55.3,29.3-73.8
	C52.5,16.1,79.4,5.4,110.4,5.3c31,0,56.2,10.8,75.7,32.3L786.9,627.9z"/>
</svg>
