<svg xmlns="http://www.w3.org/2000/svg" width="21" height="16" viewBox="0 0 21 16">
    <text id="_" data-name="⌃" transform="translate(17 8) rotate(-90)" fill="#fff" font-size="18" font-family="Inter" font-weight="500"><tspan x="-7.159" y="0">⌃</tspan></text>
</svg>
