<?xml version="1.0" encoding="utf-8"?>
<!-- Generator: Adobe Illustrator 25.0.1, SVG Export Plug-In . SVG Version: 6.00 Build 0)  -->
<svg version="1.1" id="Layer_1" xmlns="http://www.w3.org/2000/svg" xmlns:xlink="http://www.w3.org/1999/xlink" x="0px" y="0px"
	 viewBox="0 0 2172 2076" style="enable-background:new 0 0 2172 2076;" xml:space="preserve">
<style type="text/css">
	.st0{fill-rule:evenodd;clip-rule:evenodd;fill:#7c8690;}
</style>
<path class="st0" d="M1892.9,2075.9H279.1c-153.4,0-278.2-121.9-278.2-271.8v-395.3c0-40.9,34-74.1,75.9-74.1s75.9,33.2,75.9,74.1
	v395.3c0,68.2,56.7,123.6,126.4,123.6h1613.8c69.8,0,126.4-55.4,126.4-123.6v-395.3c0-40.9,34-74.1,75.9-74.1
	c41.9,0,75.9,33.2,75.9,74.1v395.3C2171,1954,2046.3,2075.9,1892.9,2075.9z M1086,1285.2c-20,0.1-39.3-7.7-53.6-21.7L526.6,769.2
	c-29-28-29.7-74.2-1.7-103.1c0.6-0.6,1.1-1.2,1.7-1.7c29.6-29,77.6-29,107.3,0l376.2,367.7V74.3c0-40.9,34-74.1,75.9-74.1
	s75.9,33.2,75.9,74.1v957.8l376.3-367.7c29.6-29,77.6-29,107.3,0c29,28,29.7,74.2,1.7,103.2c-0.6,0.6-1.1,1.1-1.7,1.7l-505.8,494.2
	C1125.3,1277.4,1106,1285.2,1086,1285.2L1086,1285.2z"/>
</svg>
