<svg xmlns="http://www.w3.org/2000/svg" width="13.498" height="15" viewBox="0 0 13.498 15">
    <path id="Envato" d="M150.209,62.643c-2.107-2.432-8.924,2.282-8.868,8.347a.29.29,0,0,1-.287.282.3.3,0,0,1-.246-.139,6.4,6.4,0,0,1-.261-4.778.262.262,0,0,0-.167-.334.269.269,0,0,0-.285.076,6.469,6.469,0,0,0,3.439,10.738,6.657,6.657,0,0,0,1.423.154c9.28-.183,7.134-12.179,5.253-14.347Z" transform="translate(-138.355 -61.99)"/>
</svg>
