<svg id="Exclusive" xmlns="http://www.w3.org/2000/svg" width="12.787" height="12.903" viewBox="0 0 12.787 12.903" fill="#323232">
    <path id="Exclusive-2" data-name="Exclusive" d="M4.883,12.006a2.272,2.272,0,0,0-.569-.5,2.428,2.428,0,0,0-.8-.061,2.2,2.2,0,0,1-1.658-.429,2.158,2.158,0,0,1-.409-1.67,2.563,2.563,0,0,0-.063-.812,2.289,2.289,0,0,0-.492-.569A2.2,2.2,0,0,1,0,6.453,2.254,2.254,0,0,1,.889,4.928a2.234,2.234,0,0,0,.492-.568,2.564,2.564,0,0,0,.063-.811,2.237,2.237,0,0,1,.423-1.671,2.155,2.155,0,0,1,1.662-.431,2.388,2.388,0,0,0,.8-.059A2.385,2.385,0,0,0,4.9.883,2.234,2.234,0,0,1,6.391,0,2.246,2.246,0,0,1,7.9.9a2.284,2.284,0,0,0,.565.5,2.4,2.4,0,0,0,.8.066,2.185,2.185,0,0,1,1.654.425,2.172,2.172,0,0,1,.426,1.67,2.46,2.46,0,0,0,.061.812,2.219,2.219,0,0,0,.5.574,2.232,2.232,0,0,1,.878,1.507A2.279,2.279,0,0,1,11.9,7.974a2.3,2.3,0,0,0-.5.57,2.4,2.4,0,0,0-.061.811,2.238,2.238,0,0,1-.426,1.67,2.113,2.113,0,0,1-1.654.429,2.432,2.432,0,0,0-.8.061,2.247,2.247,0,0,0-.57.5,2.213,2.213,0,0,1-1.494.886A2.217,2.217,0,0,1,4.883,12.006Zm-.144-1.53a2.909,2.909,0,0,1,.945.756c.232.248.534.551.707.551s.469-.3.709-.551a2.868,2.868,0,0,1,.939-.756,3.052,3.052,0,0,1,1.233-.153,1.95,1.95,0,0,0,.857-.1c.115-.1.1-.537.1-.86a3.173,3.173,0,0,1,.15-1.246,2.934,2.934,0,0,1,.749-.944c.246-.237.547-.545.547-.716s-.3-.477-.547-.713a2.953,2.953,0,0,1-.749-.952,3.139,3.139,0,0,1-.15-1.246,2.075,2.075,0,0,0-.1-.858c-.1-.116-.54-.116-.857-.1a3.082,3.082,0,0,1-1.233-.146A2.978,2.978,0,0,1,7.1,1.672c-.24-.242-.54-.551-.709-.551s-.474.309-.707.551a3.021,3.021,0,0,1-.945.763A3.075,3.075,0,0,1,3.5,2.581a1.936,1.936,0,0,0-.853.1c-.111.1-.108.537-.1.858A3.1,3.1,0,0,1,2.4,4.788a2.97,2.97,0,0,1-.755.952c-.24.236-.546.539-.546.713s.305.479.546.716a2.951,2.951,0,0,1,.755.944A3.136,3.136,0,0,1,2.551,9.36a2.006,2.006,0,0,0,.1.86c.1.121.536.11.853.1h.271l.094,0A2.482,2.482,0,0,1,4.739,10.475Zm.77-2.234L4.17,7.157a.556.556,0,0,1,.69-.871l.955.774L7.874,4.984a.534.534,0,0,1,.78,0,.55.55,0,0,1,0,.787L6.247,8.2a.555.555,0,0,1-.738.043Z"/>
</svg>
