<svg xmlns="http://www.w3.org/2000/svg" width="15" height="15" viewBox="0 0 15 15">
    <path id="Facebook" d="M251,463.544A7.5,7.5,0,1,0,242.324,471v-5.273h-1.905v-2.181h1.905v-1.662a2.654,2.654,0,0,1,2.833-2.935,11.493,11.493,0,0,1,1.679.147v1.856h-.946a1.087,1.087,0,0,0-1.222,1.178v1.416h2.08l-.332,2.181h-1.748V471A7.535,7.535,0,0,0,251,463.544Z" transform="translate(-235.996 -455.999)"/>
</svg>
