<svg xmlns="http://www.w3.org/2000/svg" width="40" height="40" viewBox="0 0 40 40">
    <g id="Pinterest_Share" data-name="Pinterest Share" transform="translate(2 2)">
        <g id="Ellipse" fill="rgba(0,0,0,0.9)" stroke="rgba(255,255,255,0.3)" stroke-linejoin="round" stroke-width="2">
            <circle cx="18" cy="18" r="18" stroke="none"/>
            <circle cx="18" cy="18" r="19" fill="none"/>
        </g>
        <g id="Pinterest-2" transform="translate(11.77 10.519)">
            <path id="Pinterest-2-2" data-name="Pinterest-2" d="M6.621-19.545C3.292-19.545,0-17.326,0-13.732c0,2.285,1.285,3.583,2.064,3.583.321,0,.506-.9.506-1.149,0-.3-.769-.945-.769-2.2a4.387,4.387,0,0,1,4.557-4.46c2.209,0,3.845,1.256,3.845,3.564,0,1.724-.691,4.956-2.93,4.956a1.441,1.441,0,0,1-1.5-1.422c0-1.227.857-2.415.857-3.681,0-2.148-3.048-1.759-3.048.837a3.813,3.813,0,0,0,.311,1.646c-.448,1.927-1.363,4.8-1.363,6.787,0,.613.087,1.217.146,1.83.11.123.055.11.224.049C4.537-5.631,4.479-6.069,5.219-9A2.633,2.633,0,0,0,7.468-7.831c3.447,0,4.994-3.36,4.994-6.388,0-3.223-2.784-5.326-5.842-5.326" transform="translate(0 19.545)" fill="#fff"/>
        </g>
    </g>
</svg>
